## Title: custom_nei_filters
## Author: denoflionsx
## Version: 1.0
## Bootstrap: Bootstrap.js
## Saved Variables: vanilla_enabled, ThermalExpansion_enabled, Mekanism_enabled, ForgeMicroblock_enabled, ExtraUtilities_enabled, BuildCraft_enabled, Bibliocraft_enabled, AE2_enabled, Tcon_enabled, MFR_enabled, Genetics_enabled
vanilla.js
ThermalExpansion.js
Mekanism.js
ForgeMicroblock.js
ExtraUtilities.js
BuildCraft.js
AppliedEnergistics2.js
Tcon.js
MFR.js
Genetics.js
WitchingGadgets.js
GraviSuite.js
TecTech.js
TinkersDefense.js
